<svg xmlns="http://www.w3.org/2000/svg" width="25.497" height="25.497" viewBox="0 0 25.497 25.497">
  <g id="_000000ff" data-name="#000000ff" transform="translate(0.1 0.1)" opacity="0.18">
    <path id="Path_5338" data-name="Path 5338" d="M70.12,0h.265a3.1,3.1,0,0,1,2.936,3.656,3.12,3.12,0,0,1-1.384,2.056A3.1,3.1,0,0,1,68.227.772,3.147,3.147,0,0,1,70.12,0M69.9,1.32a1.818,1.818,0,1,0,2.1,1.249A1.825,1.825,0,0,0,69.9,1.32Z" transform="translate(-63.853)" fill="#012b9a" stroke="#fff" stroke-width="0.2"/>
    <path id="Path_5339" data-name="Path 5339" d="M206.334,0h12.4a2.157,2.157,0,0,1,1.191.349,1.963,1.963,0,0,1,.841,1.458V14.979a1.934,1.934,0,0,1-1.973,1.807q-5.685,0-11.371,0a.709.709,0,0,1-.508-.167.64.64,0,0,1,.46-1.115q5.535,0,11.069,0a1.431,1.431,0,0,0,.737-.1.655.655,0,0,0,.3-.581q0-6.277,0-12.554a1.134,1.134,0,0,0-.128-.715.661.661,0,0,0-.564-.259H206.338a.7.7,0,0,1-.519-.186.642.642,0,0,1-.037-.874A.766.766,0,0,1,206.334,0Z" transform="translate(-195.469)" fill="#012b9a" stroke="#fff" stroke-width="0.2"/>
    <path id="Path_5340" data-name="Path 5340" d="M257.956,58.927a1.149,1.149,0,0,1,.229-.022q3.139,0,6.277,0a1.059,1.059,0,0,1,.67.124.644.644,0,0,1,.16.867.655.655,0,0,1-.581.291h-6.576a.639.639,0,0,1-.18-1.259Z" transform="translate(-244.748 -55.994)" fill="#012b9a" stroke="#fff" stroke-width="0.2"/>
    <path id="Path_5341" data-name="Path 5341" d="M257.868,117.633a.966.966,0,0,1,.379-.053c1.053,0,2.107,0,3.16,0a.654.654,0,0,1,.53.233.643.643,0,0,1,0,.809.657.657,0,0,1-.531.239q-1.634,0-3.267,0a.64.64,0,0,1-.275-1.228Z" transform="translate(-244.758 -111.771)" fill="#012b9a" stroke="#fff" stroke-width="0.2"/>
    <path id="Path_5342" data-name="Path 5342" d="M19.454,117.9a.732.732,0,0,1,.505-.3.642.642,0,0,1,.69.658.943.943,0,0,1-.334.6q-1.483,1.655-2.961,3.315a2.085,2.085,0,0,1-1.838,3.074q-1.484,0-2.968,0a2.084,2.084,0,0,1-1.435-.561c-.377-.363-.735-.746-1.117-1.1a2,2,0,0,0-.046.654V135.8h9.763a3.621,3.621,0,0,1,.617.022.639.639,0,0,1,.465.765.658.658,0,0,1-.551.495H.582A.67.67,0,0,1,0,136.507v-.086a.648.648,0,0,1,.64-.614c.75-.006,1.5,0,2.249,0,0-2.105,0-4.211,0-6.316A2.1,2.1,0,0,1,0,127.689v-5.616a3.626,3.626,0,0,1,.465-1.57,3.546,3.546,0,0,1,2.191-1.67,5.507,5.507,0,0,1,1.5-.11.7.7,0,0,1,.454.165c.391.319.773.648,1.166.964a1.065,1.065,0,0,0,1.3,0c.392-.313.77-.645,1.16-.961a.686.686,0,0,1,.462-.164,7.635,7.635,0,0,1,1.414.064,3.962,3.962,0,0,1,2.1,1.1l1.2,1.2c.705,0,1.41,0,2.115,0a2.305,2.305,0,0,1,.911.209q1.517-1.7,3.028-3.4M2.8,120.129a2.254,2.254,0,0,0-1.514,2.084c-.006,1.78,0,3.56,0,5.34a.8.8,0,0,0,1.478.439,1.431,1.431,0,0,0,.127-.737c0-1.419,0-2.838,0-4.256a.64.64,0,1,1,1.28.006q.009,6.4,0,12.8H5.778q0-3.779,0-7.558a1.18,1.18,0,0,1,.1-.647.645.645,0,0,1,.829-.235.66.66,0,0,1,.356.632V135.8H8.667V123.692a1.346,1.346,0,0,1,2.311-.946l.966.965a.914.914,0,0,0,.754.261c.94,0,1.879,0,2.82,0a.808.808,0,0,0,.8-.719.821.821,0,0,0-.8-.885c-.793-.007-1.587,0-2.38,0a.673.673,0,0,1-.482-.208c-.462-.46-.92-.923-1.384-1.381a2.684,2.684,0,0,0-1.683-.758c-.233-.014-.466-.006-.7-.009-.33.272-.656.547-.986.819a2.352,2.352,0,0,1-2.965,0c-.334-.271-.66-.55-.993-.822A3.185,3.185,0,0,0,2.8,120.129Z" transform="translate(0 -111.788)" fill="#012b9a" stroke="#fff" stroke-width="0.2"/>
  </g>
</svg>
