<svg xmlns="http://www.w3.org/2000/svg" width="12.953" height="12.977" viewBox="0 0 12.953 12.977">
  <path id="Icon_feather-phone" data-name="Icon feather-phone" d="M14.92,11.816v1.773a1.182,1.182,0,0,1-1.288,1.182,11.694,11.694,0,0,1-5.1-1.814A11.523,11.523,0,0,1,4.987,9.411,11.694,11.694,0,0,1,3.173,4.288,1.182,1.182,0,0,1,4.349,3H6.121A1.182,1.182,0,0,1,7.3,4.016a7.587,7.587,0,0,0,.414,1.66,1.182,1.182,0,0,1-.266,1.247l-.75.75a9.455,9.455,0,0,0,3.545,3.545l.75-.75a1.182,1.182,0,0,1,1.247-.266,7.587,7.587,0,0,0,1.66.414,1.182,1.182,0,0,1,1.016,1.2Z" transform="translate(-2.567 -2.4)" fill="none" stroke="#fff" stroke-linecap="round" stroke-linejoin="round" stroke-width="1.2"/>
</svg>
