<svg xmlns="http://www.w3.org/2000/svg" width="19.635" height="19.502" viewBox="0 0 19.635 19.502">
  <g id="Icon_feather-check-circle" data-name="Icon feather-check-circle" transform="translate(-2.268 -2.305)">
    <path id="Path_5358" data-name="Path 5358" d="M21.2,11.258v.837a9.1,9.1,0,1,1-5.4-8.316" transform="translate(0)" fill="none" stroke="#fff" stroke-linecap="round" stroke-linejoin="round" stroke-width="1"/>
    <path id="Path_5359" data-name="Path 5359" d="M25.328,6l-9.1,9.107L13.5,12.378" transform="translate(-4.131 -1.184)" fill="none" stroke="#fff" stroke-linecap="round" stroke-linejoin="round" stroke-width="1"/>
  </g>
</svg>
