<svg xmlns="http://www.w3.org/2000/svg" width="16.66" height="18.492" viewBox="0 0 16.66 18.492">
  <g id="Icon_feather-user" data-name="Icon feather-user" transform="translate(-5 -3.5)">
    <path id="Path_5242" data-name="Path 5242" d="M20.66,28V26.165A3.665,3.665,0,0,0,16.995,22.5H9.665A3.665,3.665,0,0,0,6,26.165V28" transform="translate(0 -7.005)" fill="none" stroke="#012b9a" stroke-linecap="round" stroke-linejoin="round" stroke-width="2"/>
    <path id="Path_5243" data-name="Path 5243" d="M19.33,8.165A3.665,3.665,0,1,1,15.665,4.5,3.665,3.665,0,0,1,19.33,8.165Z" transform="translate(-2.335)" fill="none" stroke="#012b9a" stroke-linecap="round" stroke-linejoin="round" stroke-width="2"/>
  </g>
</svg>
